^D:\GITLAB\VISUAL STUDIO\NANODESING\DEBUG\MAIN.OBJ|D:\GITLAB\VISUAL STUDIO\NANODESING\DEBUG\PARSE.OBJ|D:\GITLAB\VISUAL STUDIO\NANODESING\DEBUG\TXT_FILE.OBJ
D:\GITLAB\VISUAL STUDIO\NANODESING\DEBUG\NANODESING.ILK
D:\GITLAB\VISUAL STUDIO\NANODESING\DEBUG\NANODESING.EXE
D:\GITLAB\VISUAL STUDIO\NANODESING\DEBUG\NANODESING.PDB
