^D:\GITLAB\VISUAL STUDIO\NANODESING\DEBUG\MAIN.OBJ|D:\GITLAB\VISUAL STUDIO\NANODESING\DEBUG\PARSE.OBJ|D:\GITLAB\VISUAL STUDIO\NANODESING\DEBUG\TXT_FILE.OBJ
/OUT:"D:\GITLAB\VISUAL STUDIO\NANODESING\DEBUG\NANODESING.EXE" /INCREMENTAL /NOLOGO KERNEL32.LIB USER32.LIB GDI32.LIB WINSPOOL.LIB COMDLG32.LIB ADVAPI32.LIB SHELL32.LIB OLE32.LIB OLEAUT32.LIB UUID.LIB ODBC32.LIB ODBCCP32.LIB /MANIFEST /MANIFESTUAC:"level='asInvoker' uiAccess='false'" /manifest:embed /DEBUG:FASTLINK /PDB:"D:\GITLAB\VISUAL STUDIO\NANODESING\DEBUG\NANODESING.PDB" /SUBSYSTEM:CONSOLE /TLBID:1 /DYNAMICBASE /NXCOMPAT /IMPLIB:"D:\GITLAB\VISUAL STUDIO\NANODESING\DEBUG\NANODESING.LIB" /MACHINE:X86 DEBUG\MAIN.OBJ
DEBUG\PARSE.OBJ
DEBUG\TXT_FILE.OBJ
